^F:\CUDA_PROJEKAT\CANNY-EDGE-DETECTION\CANNY_EDGE_DETECTION\CANNY_EDGE_DETECTION\RELEASE\BMP.OBJ|F:\CUDA_PROJEKAT\CANNY-EDGE-DETECTION\CANNY_EDGE_DETECTION\CANNY_EDGE_DETECTION\RELEASE\CANNY_EDGE_DETECTION.EXE.EMBED.MANIFEST.RES|F:\CUDA_PROJEKAT\CANNY-EDGE-DETECTION\CANNY_EDGE_DETECTION\CANNY_EDGE_DETECTION\RELEASE\KERNEL.CU.OBJ|F:\CUDA_PROJEKAT\CANNY-EDGE-DETECTION\CANNY_EDGE_DETECTION\CANNY_EDGE_DETECTION\RELEASE\PROGRAM.OBJ
F:\CUDA_PROJEKAT\CANNY-EDGE-DETECTION\CANNY_EDGE_DETECTION\RELEASE\CANNY_EDGE_DETECTION.EXE
F:\CUDA_PROJEKAT\CANNY-EDGE-DETECTION\CANNY_EDGE_DETECTION\CANNY_EDGE_DETECTION\RELEASE\CANNY_EDGE_DETECTION.EXE.INTERMEDIATE.MANIFEST
F:\CUDA_PROJEKAT\CANNY-EDGE-DETECTION\CANNY_EDGE_DETECTION\RELEASE\CANNY_EDGE_DETECTION.PDB
